<?xml version="1.0" encoding="utf-8"?><graphml xmlns="http://graphml.graphdrawing.org/xmlns" xmlns:xsi="http://www.w3.org/2001/XMLSchema-instance" xsi:schemaLocation="http://graphml.graphdrawing.org/xmlns http://graphml.graphdrawing.org/xmlns/1.0/graphml.xsd">
  <key attr.name="weight" attr.type="double" for="edge" id="d0" />
  <graph edgedefault="undirected">
    <node id="0410c11a706c529434f1251d353c096e4bb40de5" />
    <node id="98a0d057ae8e07f4b8aec0cc0f2b7bef7753558f" />
    <node id="012eab8b147fea225d3238aa99dcdf7d10e9b0dc" />
    <node id="e61ef07791491ce53c691661c72da6a8a7a9dcc6" />
    <node id="888ff8c7c942f9ee5e47b95d4167e0afc4cdada4" />
    <node id="fdef04f099f9b7495872ad5d266aea036c4e6250" />
    <node id="172fb5a56b2b7cdbec5877378440da804b1e8eca" />
    <node id="d403cced3de06bfe37c1d9ea63f4e9ab9207eaf5" />
    <node id="82ad77c12b790e8b09988554fdd77501a26ad81d" />
    <node id="33849c7e40c085eeca44daa2c1ee4044206f42fb" />
    <node id="28a59473d230465308d0d682fb483db2a4924ba1" />
    <node id="d2b60e691bc2f5c100f287c339dc261c411d761c" />
    <node id="d01a1138e34728238f8bfeab3883fd0423b54923" />
    <node id="7e7e44d86df74cf68f8ae61e120095381e81c0be" />
    <node id="0bf94fd953cc70be08183e2c63e637174886dfc0" />
    <node id="e15cc5b022a1d2901bf5248673367f994004babf" />
    <node id="3db62c5b1e721b8f6b40db44ce2b822f621a7216" />
    <node id="f687035ddd1a75ef75d3ad5c389d1f0acab21422" />
    <node id="3a5993bbc2dd0ed514a180691521dd52cb83fae4" />
    <node id="82be7d8c995deead0545df460f1f4658210f404f" />
    <node id="ab8d6fbeb7a98cb5bd0f5b98a8158d43b723f977" />
    <node id="bea81203e700e4223c1684686852deab114cead6" />
    <node id="a14ffd8d52d64904c68a307e55b55aaa7d0bd25e" />
    <node id="27cbc1c88d48f536b1433f78fa2dadff19ee0958" />
    <node id="5f511a1d62fa87c69003a86222c81ee13ae52813" />
    <node id="a87a8fbc84fa033732fe0c0d63174f937864756e" />
    <node id="8e3db62eb0c80e23ce3ef157b74b5ce58e4d21c0" />
    <node id="2b34a828e704743d218356f3d5012710d0f22db5" />
    <node id="bf1462f921c3a9bc7cb90c5e5405317f5bbc6491" />
    <node id="14c131e39a65e010a169b6dd530aa777e0005fad" />
    <node id="756e7a1c6918c5dcd938cf7a76b51876c6b74899" />
    <node id="2f3edd35bbaeaf982d8f1014927243e45a594d8e" />
    <node id="cb487e2843e43f3034e4abf313d102fbca0b714a" />
    <node id="2f068b8ad040789d17d3e9410e9cba903d78e27e" />
    <node id="f5cda4895fe96279eb9bf45afbd3eb0a6b208e5a" />
    <node id="348ad6f56251104a4dfe07bb737396297cbed987" />
    <edge source="0410c11a706c529434f1251d353c096e4bb40de5" target="98a0d057ae8e07f4b8aec0cc0f2b7bef7753558f">
      <data key="d0">4.0</data>
    </edge>
    <edge source="0410c11a706c529434f1251d353c096e4bb40de5" target="3db62c5b1e721b8f6b40db44ce2b822f621a7216">
      <data key="d0">1.0</data>
    </edge>
    <edge source="0410c11a706c529434f1251d353c096e4bb40de5" target="012eab8b147fea225d3238aa99dcdf7d10e9b0dc">
      <data key="d0">1.0</data>
    </edge>
    <edge source="0410c11a706c529434f1251d353c096e4bb40de5" target="bea81203e700e4223c1684686852deab114cead6">
      <data key="d0">1.0</data>
    </edge>
    <edge source="0410c11a706c529434f1251d353c096e4bb40de5" target="756e7a1c6918c5dcd938cf7a76b51876c6b74899">
      <data key="d0">2.0</data>
    </edge>
    <edge source="0410c11a706c529434f1251d353c096e4bb40de5" target="82be7d8c995deead0545df460f1f4658210f404f">
      <data key="d0">2.0</data>
    </edge>
    <edge source="0410c11a706c529434f1251d353c096e4bb40de5" target="27cbc1c88d48f536b1433f78fa2dadff19ee0958">
      <data key="d0">1.0</data>
    </edge>
    <edge source="0410c11a706c529434f1251d353c096e4bb40de5" target="2f3edd35bbaeaf982d8f1014927243e45a594d8e">
      <data key="d0">1.0</data>
    </edge>
    <edge source="0410c11a706c529434f1251d353c096e4bb40de5" target="d01a1138e34728238f8bfeab3883fd0423b54923">
      <data key="d0">2.0</data>
    </edge>
    <edge source="0410c11a706c529434f1251d353c096e4bb40de5" target="348ad6f56251104a4dfe07bb737396297cbed987">
      <data key="d0">1.0</data>
    </edge>
    <edge source="0410c11a706c529434f1251d353c096e4bb40de5" target="f5cda4895fe96279eb9bf45afbd3eb0a6b208e5a">
      <data key="d0">1.0</data>
    </edge>
    <edge source="0410c11a706c529434f1251d353c096e4bb40de5" target="e15cc5b022a1d2901bf5248673367f994004babf">
      <data key="d0">2.0</data>
    </edge>
    <edge source="98a0d057ae8e07f4b8aec0cc0f2b7bef7753558f" target="98a0d057ae8e07f4b8aec0cc0f2b7bef7753558f">
      <data key="d0">4.0</data>
    </edge>
    <edge source="98a0d057ae8e07f4b8aec0cc0f2b7bef7753558f" target="14c131e39a65e010a169b6dd530aa777e0005fad">
      <data key="d0">4.0</data>
    </edge>
    <edge source="98a0d057ae8e07f4b8aec0cc0f2b7bef7753558f" target="82be7d8c995deead0545df460f1f4658210f404f">
      <data key="d0">2.0</data>
    </edge>
    <edge source="98a0d057ae8e07f4b8aec0cc0f2b7bef7753558f" target="e61ef07791491ce53c691661c72da6a8a7a9dcc6">
      <data key="d0">4.0</data>
    </edge>
    <edge source="98a0d057ae8e07f4b8aec0cc0f2b7bef7753558f" target="ab8d6fbeb7a98cb5bd0f5b98a8158d43b723f977">
      <data key="d0">1.0</data>
    </edge>
    <edge source="98a0d057ae8e07f4b8aec0cc0f2b7bef7753558f" target="bea81203e700e4223c1684686852deab114cead6">
      <data key="d0">2.0</data>
    </edge>
    <edge source="98a0d057ae8e07f4b8aec0cc0f2b7bef7753558f" target="3db62c5b1e721b8f6b40db44ce2b822f621a7216">
      <data key="d0">2.0</data>
    </edge>
    <edge source="98a0d057ae8e07f4b8aec0cc0f2b7bef7753558f" target="756e7a1c6918c5dcd938cf7a76b51876c6b74899">
      <data key="d0">2.0</data>
    </edge>
    <edge source="98a0d057ae8e07f4b8aec0cc0f2b7bef7753558f" target="a14ffd8d52d64904c68a307e55b55aaa7d0bd25e">
      <data key="d0">8.0</data>
    </edge>
    <edge source="98a0d057ae8e07f4b8aec0cc0f2b7bef7753558f" target="2f3edd35bbaeaf982d8f1014927243e45a594d8e">
      <data key="d0">9.0</data>
    </edge>
    <edge source="98a0d057ae8e07f4b8aec0cc0f2b7bef7753558f" target="012eab8b147fea225d3238aa99dcdf7d10e9b0dc">
      <data key="d0">2.0</data>
    </edge>
    <edge source="98a0d057ae8e07f4b8aec0cc0f2b7bef7753558f" target="27cbc1c88d48f536b1433f78fa2dadff19ee0958">
      <data key="d0">18.0</data>
    </edge>
    <edge source="98a0d057ae8e07f4b8aec0cc0f2b7bef7753558f" target="7e7e44d86df74cf68f8ae61e120095381e81c0be">
      <data key="d0">9.0</data>
    </edge>
    <edge source="98a0d057ae8e07f4b8aec0cc0f2b7bef7753558f" target="a87a8fbc84fa033732fe0c0d63174f937864756e">
      <data key="d0">2.0</data>
    </edge>
    <edge source="98a0d057ae8e07f4b8aec0cc0f2b7bef7753558f" target="d01a1138e34728238f8bfeab3883fd0423b54923">
      <data key="d0">1.0</data>
    </edge>
    <edge source="98a0d057ae8e07f4b8aec0cc0f2b7bef7753558f" target="348ad6f56251104a4dfe07bb737396297cbed987">
      <data key="d0">2.0</data>
    </edge>
    <edge source="98a0d057ae8e07f4b8aec0cc0f2b7bef7753558f" target="0bf94fd953cc70be08183e2c63e637174886dfc0">
      <data key="d0">2.0</data>
    </edge>
    <edge source="98a0d057ae8e07f4b8aec0cc0f2b7bef7753558f" target="f5cda4895fe96279eb9bf45afbd3eb0a6b208e5a">
      <data key="d0">3.0</data>
    </edge>
    <edge source="98a0d057ae8e07f4b8aec0cc0f2b7bef7753558f" target="e15cc5b022a1d2901bf5248673367f994004babf">
      <data key="d0">4.0</data>
    </edge>
    <edge source="2f068b8ad040789d17d3e9410e9cba903d78e27e" target="2f3edd35bbaeaf982d8f1014927243e45a594d8e">
      <data key="d0">1.0</data>
    </edge>
    <edge source="2f068b8ad040789d17d3e9410e9cba903d78e27e" target="e15cc5b022a1d2901bf5248673367f994004babf">
      <data key="d0">2.0</data>
    </edge>
    <edge source="012eab8b147fea225d3238aa99dcdf7d10e9b0dc" target="e15cc5b022a1d2901bf5248673367f994004babf">
      <data key="d0">2.0</data>
    </edge>
    <edge source="012eab8b147fea225d3238aa99dcdf7d10e9b0dc" target="bea81203e700e4223c1684686852deab114cead6">
      <data key="d0">4.0</data>
    </edge>
    <edge source="012eab8b147fea225d3238aa99dcdf7d10e9b0dc" target="82ad77c12b790e8b09988554fdd77501a26ad81d">
      <data key="d0">1.0</data>
    </edge>
    <edge source="012eab8b147fea225d3238aa99dcdf7d10e9b0dc" target="756e7a1c6918c5dcd938cf7a76b51876c6b74899">
      <data key="d0">2.0</data>
    </edge>
    <edge source="012eab8b147fea225d3238aa99dcdf7d10e9b0dc" target="5f511a1d62fa87c69003a86222c81ee13ae52813">
      <data key="d0">2.0</data>
    </edge>
    <edge source="012eab8b147fea225d3238aa99dcdf7d10e9b0dc" target="7e7e44d86df74cf68f8ae61e120095381e81c0be">
      <data key="d0">4.0</data>
    </edge>
    <edge source="012eab8b147fea225d3238aa99dcdf7d10e9b0dc" target="012eab8b147fea225d3238aa99dcdf7d10e9b0dc">
      <data key="d0">2.0</data>
    </edge>
    <edge source="012eab8b147fea225d3238aa99dcdf7d10e9b0dc" target="27cbc1c88d48f536b1433f78fa2dadff19ee0958">
      <data key="d0">2.0</data>
    </edge>
    <edge source="012eab8b147fea225d3238aa99dcdf7d10e9b0dc" target="2f3edd35bbaeaf982d8f1014927243e45a594d8e">
      <data key="d0">1.0</data>
    </edge>
    <edge source="012eab8b147fea225d3238aa99dcdf7d10e9b0dc" target="d01a1138e34728238f8bfeab3883fd0423b54923">
      <data key="d0">1.0</data>
    </edge>
    <edge source="012eab8b147fea225d3238aa99dcdf7d10e9b0dc" target="348ad6f56251104a4dfe07bb737396297cbed987">
      <data key="d0">1.0</data>
    </edge>
    <edge source="012eab8b147fea225d3238aa99dcdf7d10e9b0dc" target="cb487e2843e43f3034e4abf313d102fbca0b714a">
      <data key="d0">1.0</data>
    </edge>
    <edge source="012eab8b147fea225d3238aa99dcdf7d10e9b0dc" target="f5cda4895fe96279eb9bf45afbd3eb0a6b208e5a">
      <data key="d0">4.0</data>
    </edge>
    <edge source="012eab8b147fea225d3238aa99dcdf7d10e9b0dc" target="82be7d8c995deead0545df460f1f4658210f404f">
      <data key="d0">2.0</data>
    </edge>
    <edge source="e61ef07791491ce53c691661c72da6a8a7a9dcc6" target="3db62c5b1e721b8f6b40db44ce2b822f621a7216">
      <data key="d0">1.0</data>
    </edge>
    <edge source="e61ef07791491ce53c691661c72da6a8a7a9dcc6" target="e15cc5b022a1d2901bf5248673367f994004babf">
      <data key="d0">2.0</data>
    </edge>
    <edge source="e61ef07791491ce53c691661c72da6a8a7a9dcc6" target="e61ef07791491ce53c691661c72da6a8a7a9dcc6">
      <data key="d0">3.0</data>
    </edge>
    <edge source="e61ef07791491ce53c691661c72da6a8a7a9dcc6" target="bea81203e700e4223c1684686852deab114cead6">
      <data key="d0">1.0</data>
    </edge>
    <edge source="e61ef07791491ce53c691661c72da6a8a7a9dcc6" target="a14ffd8d52d64904c68a307e55b55aaa7d0bd25e">
      <data key="d0">4.0</data>
    </edge>
    <edge source="e61ef07791491ce53c691661c72da6a8a7a9dcc6" target="7e7e44d86df74cf68f8ae61e120095381e81c0be">
      <data key="d0">1.0</data>
    </edge>
    <edge source="e61ef07791491ce53c691661c72da6a8a7a9dcc6" target="82be7d8c995deead0545df460f1f4658210f404f">
      <data key="d0">2.0</data>
    </edge>
    <edge source="e61ef07791491ce53c691661c72da6a8a7a9dcc6" target="27cbc1c88d48f536b1433f78fa2dadff19ee0958">
      <data key="d0">1.0</data>
    </edge>
    <edge source="e61ef07791491ce53c691661c72da6a8a7a9dcc6" target="2f3edd35bbaeaf982d8f1014927243e45a594d8e">
      <data key="d0">1.0</data>
    </edge>
    <edge source="e61ef07791491ce53c691661c72da6a8a7a9dcc6" target="d01a1138e34728238f8bfeab3883fd0423b54923">
      <data key="d0">1.0</data>
    </edge>
    <edge source="e61ef07791491ce53c691661c72da6a8a7a9dcc6" target="0bf94fd953cc70be08183e2c63e637174886dfc0">
      <data key="d0">4.0</data>
    </edge>
    <edge source="e61ef07791491ce53c691661c72da6a8a7a9dcc6" target="f5cda4895fe96279eb9bf45afbd3eb0a6b208e5a">
      <data key="d0">2.0</data>
    </edge>
    <edge source="e61ef07791491ce53c691661c72da6a8a7a9dcc6" target="348ad6f56251104a4dfe07bb737396297cbed987">
      <data key="d0">1.0</data>
    </edge>
    <edge source="888ff8c7c942f9ee5e47b95d4167e0afc4cdada4" target="2f3edd35bbaeaf982d8f1014927243e45a594d8e">
      <data key="d0">1.0</data>
    </edge>
    <edge source="888ff8c7c942f9ee5e47b95d4167e0afc4cdada4" target="e15cc5b022a1d2901bf5248673367f994004babf">
      <data key="d0">1.0</data>
    </edge>
    <edge source="fdef04f099f9b7495872ad5d266aea036c4e6250" target="7e7e44d86df74cf68f8ae61e120095381e81c0be">
      <data key="d0">1.0</data>
    </edge>
    <edge source="fdef04f099f9b7495872ad5d266aea036c4e6250" target="2f3edd35bbaeaf982d8f1014927243e45a594d8e">
      <data key="d0">2.0</data>
    </edge>
    <edge source="fdef04f099f9b7495872ad5d266aea036c4e6250" target="27cbc1c88d48f536b1433f78fa2dadff19ee0958">
      <data key="d0">1.0</data>
    </edge>
    <edge source="fdef04f099f9b7495872ad5d266aea036c4e6250" target="348ad6f56251104a4dfe07bb737396297cbed987">
      <data key="d0">1.0</data>
    </edge>
    <edge source="756e7a1c6918c5dcd938cf7a76b51876c6b74899" target="bea81203e700e4223c1684686852deab114cead6">
      <data key="d0">3.0</data>
    </edge>
    <edge source="756e7a1c6918c5dcd938cf7a76b51876c6b74899" target="a14ffd8d52d64904c68a307e55b55aaa7d0bd25e">
      <data key="d0">5.0</data>
    </edge>
    <edge source="756e7a1c6918c5dcd938cf7a76b51876c6b74899" target="27cbc1c88d48f536b1433f78fa2dadff19ee0958">
      <data key="d0">3.0</data>
    </edge>
    <edge source="756e7a1c6918c5dcd938cf7a76b51876c6b74899" target="5f511a1d62fa87c69003a86222c81ee13ae52813">
      <data key="d0">1.0</data>
    </edge>
    <edge source="756e7a1c6918c5dcd938cf7a76b51876c6b74899" target="756e7a1c6918c5dcd938cf7a76b51876c6b74899">
      <data key="d0">6.0</data>
    </edge>
    <edge source="756e7a1c6918c5dcd938cf7a76b51876c6b74899" target="d403cced3de06bfe37c1d9ea63f4e9ab9207eaf5">
      <data key="d0">1.0</data>
    </edge>
    <edge source="756e7a1c6918c5dcd938cf7a76b51876c6b74899" target="14c131e39a65e010a169b6dd530aa777e0005fad">
      <data key="d0">4.0</data>
    </edge>
    <edge source="756e7a1c6918c5dcd938cf7a76b51876c6b74899" target="7e7e44d86df74cf68f8ae61e120095381e81c0be">
      <data key="d0">2.0</data>
    </edge>
    <edge source="756e7a1c6918c5dcd938cf7a76b51876c6b74899" target="2f3edd35bbaeaf982d8f1014927243e45a594d8e">
      <data key="d0">13.0</data>
    </edge>
    <edge source="756e7a1c6918c5dcd938cf7a76b51876c6b74899" target="d01a1138e34728238f8bfeab3883fd0423b54923">
      <data key="d0">2.0</data>
    </edge>
    <edge source="756e7a1c6918c5dcd938cf7a76b51876c6b74899" target="f5cda4895fe96279eb9bf45afbd3eb0a6b208e5a">
      <data key="d0">5.0</data>
    </edge>
    <edge source="756e7a1c6918c5dcd938cf7a76b51876c6b74899" target="82be7d8c995deead0545df460f1f4658210f404f">
      <data key="d0">3.0</data>
    </edge>
    <edge source="172fb5a56b2b7cdbec5877378440da804b1e8eca" target="2f3edd35bbaeaf982d8f1014927243e45a594d8e">
      <data key="d0">1.0</data>
    </edge>
    <edge source="d403cced3de06bfe37c1d9ea63f4e9ab9207eaf5" target="2f3edd35bbaeaf982d8f1014927243e45a594d8e">
      <data key="d0">1.0</data>
    </edge>
    <edge source="d403cced3de06bfe37c1d9ea63f4e9ab9207eaf5" target="82be7d8c995deead0545df460f1f4658210f404f">
      <data key="d0">1.0</data>
    </edge>
    <edge source="82ad77c12b790e8b09988554fdd77501a26ad81d" target="27cbc1c88d48f536b1433f78fa2dadff19ee0958">
      <data key="d0">3.0</data>
    </edge>
    <edge source="82ad77c12b790e8b09988554fdd77501a26ad81d" target="2f3edd35bbaeaf982d8f1014927243e45a594d8e">
      <data key="d0">1.0</data>
    </edge>
    <edge source="82ad77c12b790e8b09988554fdd77501a26ad81d" target="348ad6f56251104a4dfe07bb737396297cbed987">
      <data key="d0">1.0</data>
    </edge>
    <edge source="82ad77c12b790e8b09988554fdd77501a26ad81d" target="f5cda4895fe96279eb9bf45afbd3eb0a6b208e5a">
      <data key="d0">2.0</data>
    </edge>
    <edge source="82ad77c12b790e8b09988554fdd77501a26ad81d" target="e15cc5b022a1d2901bf5248673367f994004babf">
      <data key="d0">3.0</data>
    </edge>
    <edge source="33849c7e40c085eeca44daa2c1ee4044206f42fb" target="2f3edd35bbaeaf982d8f1014927243e45a594d8e">
      <data key="d0">1.0</data>
    </edge>
    <edge source="28a59473d230465308d0d682fb483db2a4924ba1" target="2f3edd35bbaeaf982d8f1014927243e45a594d8e">
      <data key="d0">1.0</data>
    </edge>
    <edge source="d2b60e691bc2f5c100f287c339dc261c411d761c" target="2f3edd35bbaeaf982d8f1014927243e45a594d8e">
      <data key="d0">2.0</data>
    </edge>
    <edge source="d2b60e691bc2f5c100f287c339dc261c411d761c" target="d2b60e691bc2f5c100f287c339dc261c411d761c">
      <data key="d0">3.0</data>
    </edge>
    <edge source="d2b60e691bc2f5c100f287c339dc261c411d761c" target="e15cc5b022a1d2901bf5248673367f994004babf">
      <data key="d0">4.0</data>
    </edge>
    <edge source="d2b60e691bc2f5c100f287c339dc261c411d761c" target="27cbc1c88d48f536b1433f78fa2dadff19ee0958">
      <data key="d0">1.0</data>
    </edge>
    <edge source="d01a1138e34728238f8bfeab3883fd0423b54923" target="14c131e39a65e010a169b6dd530aa777e0005fad">
      <data key="d0">3.0</data>
    </edge>
    <edge source="d01a1138e34728238f8bfeab3883fd0423b54923" target="3db62c5b1e721b8f6b40db44ce2b822f621a7216">
      <data key="d0">2.0</data>
    </edge>
    <edge source="d01a1138e34728238f8bfeab3883fd0423b54923" target="e15cc5b022a1d2901bf5248673367f994004babf">
      <data key="d0">1.0</data>
    </edge>
    <edge source="d01a1138e34728238f8bfeab3883fd0423b54923" target="2f3edd35bbaeaf982d8f1014927243e45a594d8e">
      <data key="d0">2.0</data>
    </edge>
    <edge source="d01a1138e34728238f8bfeab3883fd0423b54923" target="27cbc1c88d48f536b1433f78fa2dadff19ee0958">
      <data key="d0">2.0</data>
    </edge>
    <edge source="d01a1138e34728238f8bfeab3883fd0423b54923" target="7e7e44d86df74cf68f8ae61e120095381e81c0be">
      <data key="d0">4.0</data>
    </edge>
    <edge source="d01a1138e34728238f8bfeab3883fd0423b54923" target="d01a1138e34728238f8bfeab3883fd0423b54923">
      <data key="d0">8.0</data>
    </edge>
    <edge source="d01a1138e34728238f8bfeab3883fd0423b54923" target="0bf94fd953cc70be08183e2c63e637174886dfc0">
      <data key="d0">1.0</data>
    </edge>
    <edge source="d01a1138e34728238f8bfeab3883fd0423b54923" target="f5cda4895fe96279eb9bf45afbd3eb0a6b208e5a">
      <data key="d0">2.0</data>
    </edge>
    <edge source="d01a1138e34728238f8bfeab3883fd0423b54923" target="82be7d8c995deead0545df460f1f4658210f404f">
      <data key="d0">6.0</data>
    </edge>
    <edge source="e15cc5b022a1d2901bf5248673367f994004babf" target="2f3edd35bbaeaf982d8f1014927243e45a594d8e">
      <data key="d0">30.0</data>
    </edge>
    <edge source="e15cc5b022a1d2901bf5248673367f994004babf" target="e15cc5b022a1d2901bf5248673367f994004babf">
      <data key="d0">23.0</data>
    </edge>
    <edge source="e15cc5b022a1d2901bf5248673367f994004babf" target="3db62c5b1e721b8f6b40db44ce2b822f621a7216">
      <data key="d0">2.0</data>
    </edge>
    <edge source="e15cc5b022a1d2901bf5248673367f994004babf" target="f687035ddd1a75ef75d3ad5c389d1f0acab21422">
      <data key="d0">2.0</data>
    </edge>
    <edge source="e15cc5b022a1d2901bf5248673367f994004babf" target="82be7d8c995deead0545df460f1f4658210f404f">
      <data key="d0">5.0</data>
    </edge>
    <edge source="e15cc5b022a1d2901bf5248673367f994004babf" target="bea81203e700e4223c1684686852deab114cead6">
      <data key="d0">3.0</data>
    </edge>
    <edge source="e15cc5b022a1d2901bf5248673367f994004babf" target="a14ffd8d52d64904c68a307e55b55aaa7d0bd25e">
      <data key="d0">3.0</data>
    </edge>
    <edge source="e15cc5b022a1d2901bf5248673367f994004babf" target="27cbc1c88d48f536b1433f78fa2dadff19ee0958">
      <data key="d0">5.0</data>
    </edge>
    <edge source="e15cc5b022a1d2901bf5248673367f994004babf" target="5f511a1d62fa87c69003a86222c81ee13ae52813">
      <data key="d0">3.0</data>
    </edge>
    <edge source="e15cc5b022a1d2901bf5248673367f994004babf" target="a87a8fbc84fa033732fe0c0d63174f937864756e">
      <data key="d0">3.0</data>
    </edge>
    <edge source="e15cc5b022a1d2901bf5248673367f994004babf" target="bf1462f921c3a9bc7cb90c5e5405317f5bbc6491">
      <data key="d0">2.0</data>
    </edge>
    <edge source="e15cc5b022a1d2901bf5248673367f994004babf" target="14c131e39a65e010a169b6dd530aa777e0005fad">
      <data key="d0">2.0</data>
    </edge>
    <edge source="e15cc5b022a1d2901bf5248673367f994004babf" target="7e7e44d86df74cf68f8ae61e120095381e81c0be">
      <data key="d0">1.0</data>
    </edge>
    <edge source="e15cc5b022a1d2901bf5248673367f994004babf" target="cb487e2843e43f3034e4abf313d102fbca0b714a">
      <data key="d0">3.0</data>
    </edge>
    <edge source="e15cc5b022a1d2901bf5248673367f994004babf" target="0bf94fd953cc70be08183e2c63e637174886dfc0">
      <data key="d0">3.0</data>
    </edge>
    <edge source="e15cc5b022a1d2901bf5248673367f994004babf" target="f5cda4895fe96279eb9bf45afbd3eb0a6b208e5a">
      <data key="d0">3.0</data>
    </edge>
    <edge source="e15cc5b022a1d2901bf5248673367f994004babf" target="348ad6f56251104a4dfe07bb737396297cbed987">
      <data key="d0">1.0</data>
    </edge>
    <edge source="3db62c5b1e721b8f6b40db44ce2b822f621a7216" target="ab8d6fbeb7a98cb5bd0f5b98a8158d43b723f977">
      <data key="d0">1.0</data>
    </edge>
    <edge source="3db62c5b1e721b8f6b40db44ce2b822f621a7216" target="bea81203e700e4223c1684686852deab114cead6">
      <data key="d0">1.0</data>
    </edge>
    <edge source="3db62c5b1e721b8f6b40db44ce2b822f621a7216" target="a14ffd8d52d64904c68a307e55b55aaa7d0bd25e">
      <data key="d0">4.0</data>
    </edge>
    <edge source="3db62c5b1e721b8f6b40db44ce2b822f621a7216" target="27cbc1c88d48f536b1433f78fa2dadff19ee0958">
      <data key="d0">1.0</data>
    </edge>
    <edge source="3db62c5b1e721b8f6b40db44ce2b822f621a7216" target="a87a8fbc84fa033732fe0c0d63174f937864756e">
      <data key="d0">1.0</data>
    </edge>
    <edge source="3db62c5b1e721b8f6b40db44ce2b822f621a7216" target="3a5993bbc2dd0ed514a180691521dd52cb83fae4">
      <data key="d0">1.0</data>
    </edge>
    <edge source="3db62c5b1e721b8f6b40db44ce2b822f621a7216" target="14c131e39a65e010a169b6dd530aa777e0005fad">
      <data key="d0">1.0</data>
    </edge>
    <edge source="3db62c5b1e721b8f6b40db44ce2b822f621a7216" target="2f3edd35bbaeaf982d8f1014927243e45a594d8e">
      <data key="d0">3.0</data>
    </edge>
    <edge source="3db62c5b1e721b8f6b40db44ce2b822f621a7216" target="cb487e2843e43f3034e4abf313d102fbca0b714a">
      <data key="d0">1.0</data>
    </edge>
    <edge source="3db62c5b1e721b8f6b40db44ce2b822f621a7216" target="f5cda4895fe96279eb9bf45afbd3eb0a6b208e5a">
      <data key="d0">2.0</data>
    </edge>
    <edge source="f687035ddd1a75ef75d3ad5c389d1f0acab21422" target="7e7e44d86df74cf68f8ae61e120095381e81c0be">
      <data key="d0">2.0</data>
    </edge>
    <edge source="f687035ddd1a75ef75d3ad5c389d1f0acab21422" target="2f3edd35bbaeaf982d8f1014927243e45a594d8e">
      <data key="d0">2.0</data>
    </edge>
    <edge source="f687035ddd1a75ef75d3ad5c389d1f0acab21422" target="0bf94fd953cc70be08183e2c63e637174886dfc0">
      <data key="d0">1.0</data>
    </edge>
    <edge source="14c131e39a65e010a169b6dd530aa777e0005fad" target="bea81203e700e4223c1684686852deab114cead6">
      <data key="d0">4.0</data>
    </edge>
    <edge source="14c131e39a65e010a169b6dd530aa777e0005fad" target="a14ffd8d52d64904c68a307e55b55aaa7d0bd25e">
      <data key="d0">6.0</data>
    </edge>
    <edge source="14c131e39a65e010a169b6dd530aa777e0005fad" target="27cbc1c88d48f536b1433f78fa2dadff19ee0958">
      <data key="d0">4.0</data>
    </edge>
    <edge source="14c131e39a65e010a169b6dd530aa777e0005fad" target="a87a8fbc84fa033732fe0c0d63174f937864756e">
      <data key="d0">2.0</data>
    </edge>
    <edge source="14c131e39a65e010a169b6dd530aa777e0005fad" target="82be7d8c995deead0545df460f1f4658210f404f">
      <data key="d0">1.0</data>
    </edge>
    <edge source="14c131e39a65e010a169b6dd530aa777e0005fad" target="14c131e39a65e010a169b6dd530aa777e0005fad">
      <data key="d0">2.0</data>
    </edge>
    <edge source="14c131e39a65e010a169b6dd530aa777e0005fad" target="2f3edd35bbaeaf982d8f1014927243e45a594d8e">
      <data key="d0">10.0</data>
    </edge>
    <edge source="14c131e39a65e010a169b6dd530aa777e0005fad" target="7e7e44d86df74cf68f8ae61e120095381e81c0be">
      <data key="d0">11.0</data>
    </edge>
    <edge source="14c131e39a65e010a169b6dd530aa777e0005fad" target="0bf94fd953cc70be08183e2c63e637174886dfc0">
      <data key="d0">3.0</data>
    </edge>
    <edge source="14c131e39a65e010a169b6dd530aa777e0005fad" target="f5cda4895fe96279eb9bf45afbd3eb0a6b208e5a">
      <data key="d0">1.0</data>
    </edge>
    <edge source="14c131e39a65e010a169b6dd530aa777e0005fad" target="348ad6f56251104a4dfe07bb737396297cbed987">
      <data key="d0">3.0</data>
    </edge>
    <edge source="82be7d8c995deead0545df460f1f4658210f404f" target="82be7d8c995deead0545df460f1f4658210f404f">
      <data key="d0">7.0</data>
    </edge>
    <edge source="82be7d8c995deead0545df460f1f4658210f404f" target="bea81203e700e4223c1684686852deab114cead6">
      <data key="d0">1.0</data>
    </edge>
    <edge source="82be7d8c995deead0545df460f1f4658210f404f" target="a14ffd8d52d64904c68a307e55b55aaa7d0bd25e">
      <data key="d0">3.0</data>
    </edge>
    <edge source="82be7d8c995deead0545df460f1f4658210f404f" target="a87a8fbc84fa033732fe0c0d63174f937864756e">
      <data key="d0">1.0</data>
    </edge>
    <edge source="82be7d8c995deead0545df460f1f4658210f404f" target="27cbc1c88d48f536b1433f78fa2dadff19ee0958">
      <data key="d0">1.0</data>
    </edge>
    <edge source="82be7d8c995deead0545df460f1f4658210f404f" target="7e7e44d86df74cf68f8ae61e120095381e81c0be">
      <data key="d0">1.0</data>
    </edge>
    <edge source="82be7d8c995deead0545df460f1f4658210f404f" target="2f3edd35bbaeaf982d8f1014927243e45a594d8e">
      <data key="d0">7.0</data>
    </edge>
    <edge source="82be7d8c995deead0545df460f1f4658210f404f" target="348ad6f56251104a4dfe07bb737396297cbed987">
      <data key="d0">2.0</data>
    </edge>
    <edge source="82be7d8c995deead0545df460f1f4658210f404f" target="0bf94fd953cc70be08183e2c63e637174886dfc0">
      <data key="d0">4.0</data>
    </edge>
    <edge source="82be7d8c995deead0545df460f1f4658210f404f" target="cb487e2843e43f3034e4abf313d102fbca0b714a">
      <data key="d0">3.0</data>
    </edge>
    <edge source="82be7d8c995deead0545df460f1f4658210f404f" target="f5cda4895fe96279eb9bf45afbd3eb0a6b208e5a">
      <data key="d0">7.0</data>
    </edge>
    <edge source="ab8d6fbeb7a98cb5bd0f5b98a8158d43b723f977" target="2f3edd35bbaeaf982d8f1014927243e45a594d8e">
      <data key="d0">1.0</data>
    </edge>
    <edge source="ab8d6fbeb7a98cb5bd0f5b98a8158d43b723f977" target="7e7e44d86df74cf68f8ae61e120095381e81c0be">
      <data key="d0">1.0</data>
    </edge>
    <edge source="bea81203e700e4223c1684686852deab114cead6" target="bea81203e700e4223c1684686852deab114cead6">
      <data key="d0">3.0</data>
    </edge>
    <edge source="bea81203e700e4223c1684686852deab114cead6" target="a14ffd8d52d64904c68a307e55b55aaa7d0bd25e">
      <data key="d0">1.0</data>
    </edge>
    <edge source="bea81203e700e4223c1684686852deab114cead6" target="5f511a1d62fa87c69003a86222c81ee13ae52813">
      <data key="d0">2.0</data>
    </edge>
    <edge source="bea81203e700e4223c1684686852deab114cead6" target="a87a8fbc84fa033732fe0c0d63174f937864756e">
      <data key="d0">1.0</data>
    </edge>
    <edge source="bea81203e700e4223c1684686852deab114cead6" target="27cbc1c88d48f536b1433f78fa2dadff19ee0958">
      <data key="d0">4.0</data>
    </edge>
    <edge source="bea81203e700e4223c1684686852deab114cead6" target="7e7e44d86df74cf68f8ae61e120095381e81c0be">
      <data key="d0">4.0</data>
    </edge>
    <edge source="bea81203e700e4223c1684686852deab114cead6" target="2f3edd35bbaeaf982d8f1014927243e45a594d8e">
      <data key="d0">2.0</data>
    </edge>
    <edge source="bea81203e700e4223c1684686852deab114cead6" target="cb487e2843e43f3034e4abf313d102fbca0b714a">
      <data key="d0">1.0</data>
    </edge>
    <edge source="bea81203e700e4223c1684686852deab114cead6" target="f5cda4895fe96279eb9bf45afbd3eb0a6b208e5a">
      <data key="d0">4.0</data>
    </edge>
    <edge source="2f3edd35bbaeaf982d8f1014927243e45a594d8e" target="2f3edd35bbaeaf982d8f1014927243e45a594d8e">
      <data key="d0">17.0</data>
    </edge>
    <edge source="2f3edd35bbaeaf982d8f1014927243e45a594d8e" target="a14ffd8d52d64904c68a307e55b55aaa7d0bd25e">
      <data key="d0">5.0</data>
    </edge>
    <edge source="2f3edd35bbaeaf982d8f1014927243e45a594d8e" target="27cbc1c88d48f536b1433f78fa2dadff19ee0958">
      <data key="d0">12.0</data>
    </edge>
    <edge source="2f3edd35bbaeaf982d8f1014927243e45a594d8e" target="5f511a1d62fa87c69003a86222c81ee13ae52813">
      <data key="d0">1.0</data>
    </edge>
    <edge source="2f3edd35bbaeaf982d8f1014927243e45a594d8e" target="a87a8fbc84fa033732fe0c0d63174f937864756e">
      <data key="d0">2.0</data>
    </edge>
    <edge source="2f3edd35bbaeaf982d8f1014927243e45a594d8e" target="8e3db62eb0c80e23ce3ef157b74b5ce58e4d21c0">
      <data key="d0">2.0</data>
    </edge>
    <edge source="2f3edd35bbaeaf982d8f1014927243e45a594d8e" target="2b34a828e704743d218356f3d5012710d0f22db5">
      <data key="d0">1.0</data>
    </edge>
    <edge source="2f3edd35bbaeaf982d8f1014927243e45a594d8e" target="3a5993bbc2dd0ed514a180691521dd52cb83fae4">
      <data key="d0">1.0</data>
    </edge>
    <edge source="2f3edd35bbaeaf982d8f1014927243e45a594d8e" target="7e7e44d86df74cf68f8ae61e120095381e81c0be">
      <data key="d0">3.0</data>
    </edge>
    <edge source="2f3edd35bbaeaf982d8f1014927243e45a594d8e" target="bf1462f921c3a9bc7cb90c5e5405317f5bbc6491">
      <data key="d0">1.0</data>
    </edge>
    <edge source="2f3edd35bbaeaf982d8f1014927243e45a594d8e" target="cb487e2843e43f3034e4abf313d102fbca0b714a">
      <data key="d0">1.0</data>
    </edge>
    <edge source="2f3edd35bbaeaf982d8f1014927243e45a594d8e" target="0bf94fd953cc70be08183e2c63e637174886dfc0">
      <data key="d0">2.0</data>
    </edge>
    <edge source="2f3edd35bbaeaf982d8f1014927243e45a594d8e" target="f5cda4895fe96279eb9bf45afbd3eb0a6b208e5a">
      <data key="d0">2.0</data>
    </edge>
    <edge source="2f3edd35bbaeaf982d8f1014927243e45a594d8e" target="348ad6f56251104a4dfe07bb737396297cbed987">
      <data key="d0">2.0</data>
    </edge>
    <edge source="a14ffd8d52d64904c68a307e55b55aaa7d0bd25e" target="a14ffd8d52d64904c68a307e55b55aaa7d0bd25e">
      <data key="d0">13.0</data>
    </edge>
    <edge source="a14ffd8d52d64904c68a307e55b55aaa7d0bd25e" target="27cbc1c88d48f536b1433f78fa2dadff19ee0958">
      <data key="d0">4.0</data>
    </edge>
    <edge source="a14ffd8d52d64904c68a307e55b55aaa7d0bd25e" target="a87a8fbc84fa033732fe0c0d63174f937864756e">
      <data key="d0">3.0</data>
    </edge>
    <edge source="a14ffd8d52d64904c68a307e55b55aaa7d0bd25e" target="bf1462f921c3a9bc7cb90c5e5405317f5bbc6491">
      <data key="d0">1.0</data>
    </edge>
    <edge source="a14ffd8d52d64904c68a307e55b55aaa7d0bd25e" target="cb487e2843e43f3034e4abf313d102fbca0b714a">
      <data key="d0">1.0</data>
    </edge>
    <edge source="a14ffd8d52d64904c68a307e55b55aaa7d0bd25e" target="7e7e44d86df74cf68f8ae61e120095381e81c0be">
      <data key="d0">1.0</data>
    </edge>
    <edge source="a14ffd8d52d64904c68a307e55b55aaa7d0bd25e" target="0bf94fd953cc70be08183e2c63e637174886dfc0">
      <data key="d0">1.0</data>
    </edge>
    <edge source="a14ffd8d52d64904c68a307e55b55aaa7d0bd25e" target="f5cda4895fe96279eb9bf45afbd3eb0a6b208e5a">
      <data key="d0">3.0</data>
    </edge>
    <edge source="a14ffd8d52d64904c68a307e55b55aaa7d0bd25e" target="348ad6f56251104a4dfe07bb737396297cbed987">
      <data key="d0">1.0</data>
    </edge>
    <edge source="5f511a1d62fa87c69003a86222c81ee13ae52813" target="bf1462f921c3a9bc7cb90c5e5405317f5bbc6491">
      <data key="d0">1.0</data>
    </edge>
    <edge source="5f511a1d62fa87c69003a86222c81ee13ae52813" target="27cbc1c88d48f536b1433f78fa2dadff19ee0958">
      <data key="d0">1.0</data>
    </edge>
    <edge source="5f511a1d62fa87c69003a86222c81ee13ae52813" target="f5cda4895fe96279eb9bf45afbd3eb0a6b208e5a">
      <data key="d0">1.0</data>
    </edge>
    <edge source="5f511a1d62fa87c69003a86222c81ee13ae52813" target="348ad6f56251104a4dfe07bb737396297cbed987">
      <data key="d0">1.0</data>
    </edge>
    <edge source="a87a8fbc84fa033732fe0c0d63174f937864756e" target="27cbc1c88d48f536b1433f78fa2dadff19ee0958">
      <data key="d0">2.0</data>
    </edge>
    <edge source="a87a8fbc84fa033732fe0c0d63174f937864756e" target="a87a8fbc84fa033732fe0c0d63174f937864756e">
      <data key="d0">2.0</data>
    </edge>
    <edge source="a87a8fbc84fa033732fe0c0d63174f937864756e" target="7e7e44d86df74cf68f8ae61e120095381e81c0be">
      <data key="d0">3.0</data>
    </edge>
    <edge source="a87a8fbc84fa033732fe0c0d63174f937864756e" target="0bf94fd953cc70be08183e2c63e637174886dfc0">
      <data key="d0">4.0</data>
    </edge>
    <edge source="8e3db62eb0c80e23ce3ef157b74b5ce58e4d21c0" target="8e3db62eb0c80e23ce3ef157b74b5ce58e4d21c0">
      <data key="d0">1.0</data>
    </edge>
    <edge source="3a5993bbc2dd0ed514a180691521dd52cb83fae4" target="27cbc1c88d48f536b1433f78fa2dadff19ee0958">
      <data key="d0">1.0</data>
    </edge>
    <edge source="3a5993bbc2dd0ed514a180691521dd52cb83fae4" target="f5cda4895fe96279eb9bf45afbd3eb0a6b208e5a">
      <data key="d0">1.0</data>
    </edge>
    <edge source="27cbc1c88d48f536b1433f78fa2dadff19ee0958" target="7e7e44d86df74cf68f8ae61e120095381e81c0be">
      <data key="d0">3.0</data>
    </edge>
    <edge source="27cbc1c88d48f536b1433f78fa2dadff19ee0958" target="27cbc1c88d48f536b1433f78fa2dadff19ee0958">
      <data key="d0">10.0</data>
    </edge>
    <edge source="27cbc1c88d48f536b1433f78fa2dadff19ee0958" target="cb487e2843e43f3034e4abf313d102fbca0b714a">
      <data key="d0">2.0</data>
    </edge>
    <edge source="27cbc1c88d48f536b1433f78fa2dadff19ee0958" target="0bf94fd953cc70be08183e2c63e637174886dfc0">
      <data key="d0">1.0</data>
    </edge>
    <edge source="27cbc1c88d48f536b1433f78fa2dadff19ee0958" target="f5cda4895fe96279eb9bf45afbd3eb0a6b208e5a">
      <data key="d0">4.0</data>
    </edge>
    <edge source="27cbc1c88d48f536b1433f78fa2dadff19ee0958" target="348ad6f56251104a4dfe07bb737396297cbed987">
      <data key="d0">2.0</data>
    </edge>
    <edge source="7e7e44d86df74cf68f8ae61e120095381e81c0be" target="bf1462f921c3a9bc7cb90c5e5405317f5bbc6491">
      <data key="d0">1.0</data>
    </edge>
    <edge source="7e7e44d86df74cf68f8ae61e120095381e81c0be" target="348ad6f56251104a4dfe07bb737396297cbed987">
      <data key="d0">1.0</data>
    </edge>
    <edge source="7e7e44d86df74cf68f8ae61e120095381e81c0be" target="0bf94fd953cc70be08183e2c63e637174886dfc0">
      <data key="d0">1.0</data>
    </edge>
    <edge source="7e7e44d86df74cf68f8ae61e120095381e81c0be" target="f5cda4895fe96279eb9bf45afbd3eb0a6b208e5a">
      <data key="d0">1.0</data>
    </edge>
    <edge source="bf1462f921c3a9bc7cb90c5e5405317f5bbc6491" target="348ad6f56251104a4dfe07bb737396297cbed987">
      <data key="d0">1.0</data>
    </edge>
    <edge source="cb487e2843e43f3034e4abf313d102fbca0b714a" target="348ad6f56251104a4dfe07bb737396297cbed987">
      <data key="d0">2.0</data>
    </edge>
    <edge source="cb487e2843e43f3034e4abf313d102fbca0b714a" target="f5cda4895fe96279eb9bf45afbd3eb0a6b208e5a">
      <data key="d0">1.0</data>
    </edge>
    <edge source="0bf94fd953cc70be08183e2c63e637174886dfc0" target="0bf94fd953cc70be08183e2c63e637174886dfc0">
      <data key="d0">1.0</data>
    </edge>
    <edge source="0bf94fd953cc70be08183e2c63e637174886dfc0" target="f5cda4895fe96279eb9bf45afbd3eb0a6b208e5a">
      <data key="d0">2.0</data>
    </edge>
    <edge source="0bf94fd953cc70be08183e2c63e637174886dfc0" target="348ad6f56251104a4dfe07bb737396297cbed987">
      <data key="d0">1.0</data>
    </edge>
    <edge source="f5cda4895fe96279eb9bf45afbd3eb0a6b208e5a" target="f5cda4895fe96279eb9bf45afbd3eb0a6b208e5a">
      <data key="d0">12.0</data>
    </edge>
    <edge source="f5cda4895fe96279eb9bf45afbd3eb0a6b208e5a" target="348ad6f56251104a4dfe07bb737396297cbed987">
      <data key="d0">1.0</data>
    </edge>
    <edge source="348ad6f56251104a4dfe07bb737396297cbed987" target="348ad6f56251104a4dfe07bb737396297cbed987">
      <data key="d0">1.0</data>
    </edge>
  </graph>
</graphml>
